Capítulo 6 Midiendo el pulso de la democracia: Perú 2008 - 2019 | Elaboración de productos de datos: Reportes con R Markdown
…
DemocraciaPeru_2019 <-LAPOP_2019 %>%
  mutate(year = 2019, wt = as.double(wt))%>%
  select(year,ing4,pn4,wt)

A continuación,luego de limpiar y crear como objeto las bases de datos por año en el environment, se procede a juntar las filas seleccionadas de todas las bases de datos desde el año 2008 hasta el 2019 en una sola: Democracia_subset. Para ello, se utiliza la función bind_rows.

Democracia_subset<-bind_rows(DemocraciaPeru_2008,DemocraciaPeru_2010,
                             DemocraciaPeru_2012,DemocraciaPeru_2014,DemocraciaPeru_2017,
                             DemocraciaPeru_2019)

Previo al análisis de los resultados, resulta necesario explorar el conjunto de datos a usar para el análisis.

Democracia_subset

## # A tibble: 9,051 x 4
##     year ing4           pn4                 wt
##    <dbl> <fct>          <fct>            <dbl>
##  1  2008 Muy de acuerdo Satisfecho           1
##  2  2008 ( 6 )          Satisfecho           1
##  3  2008 ( 4 )          Satisfecho           1
##  4  2008 Muy de acuerdo Insatisfecho         1
##  5  2008 ( 5 )          Insatisfecho         1
##  6  2008 ( 5 )          Muy insatisfecho     1
##  7  2008 Muy de acuerdo Insatisfecho         1
##  8  2008 ( 5 )          Insatisfecho         1
##  9  2008 ( 6 )          Muy insatisfecho     1
## 10  2008 ( 4 )          Satisfecho           1
## # ... with 9,041 more rows
…
En el siguiente bloque de código, se recategoriza la variable satisfacción con la democracia (pn4) a través de la agrupación de las repuestas en dos categorías: Insatisfacción y Satisfacción. En los análisis que siguen, se agrupan los datos de tal forma que las respuestas de “muy insatisfecho” e “insatisfecho” se codifican conjuntamente como insatisfacción, y las respuestas “muy satisfecho” y “satisfecho” se codifican conjuntamente como satisfacción.

Satisfaccion_democracia2<- Satisfaccion_democracia %>%
mutate(categoria = case_when(
        pn4 %in% c("Muy insatisfecho", "Insatisfecho", "Muy insatisfecho(a)",
                   "Insatisfecho(a)", "Very Dissatisfied", "Dissatisfied") ~ "Insatisfaccion",
        pn4 %in% c("Muy satisfecho", "Satisfecho","Muy satisfecho(a)",
                   "Satisfecho(a)","Very Satisfied", "Satisfied") ~ "Satisfaccion",
        TRUE ~ as.character(pn4)
    )) 

Satisfaccion_democracia2

## # A tibble: 32 x 5
##     year pn4              satisfaccion_democracia porcentaje categoria     
##    <dbl> <fct>                              <dbl>      <dbl> <chr>         
##  1  2008 Muy satisfecho                        20        1.3 Satisfaccion  
##  2  2008 Satisfecho                           486       32.4 Satisfaccion  
##  3  2008 Insatisfecho                         826       55.1 Insatisfaccion
##  4  2008 Muy insatisfecho                     105        7   Insatisfaccion
##  5  2008 <NA>                                  63        4.2 <NA>          
##  6  2010 Muy satisfecho                        35        2.3 Satisfaccion  
##  7  2010 Satisfecho                           528       35.2 Satisfaccion  
##  8  2010 Insatisfecho                         789       52.6 Insatisfaccion
##  9  2010 Muy insatisfecho                      89        5.9 Insatisfaccion
## 10  2010 <NA>                                  59        3.9 <NA>          
## # ... with 22 more rows
…
6.4.3 Apoyo a la democracia, Perú 2008 - 2019

Se realiza el mismo procedimiento de recategorización para la variable apoyo a la democracia donde se consideran las respuestas en la porción de la escala que indica estar de acuerdo, esto es los valores de 5 a 7, para indicar el porcentaje de apoyo a la democracia.

apoyo_democracia2<- Apoyo_democracia %>%
mutate(categoria = case_when(
        ing4 %in% c("5", "6", "Muy de acuerdo", "Strongly Agree","(5)", "(6)",
                    "Muy de acuerdo (7)", "( 5 )", "( 6 )") ~ "Apoyo",
        TRUE ~ as.character(ing4)
  ))  

apoyo_democracia2

## # A tibble: 50 x 5
##     year ing4              apoyo_democracia porcentaje categoria        
##    <dbl> <fct>                        <dbl>      <dbl> <chr>            
##  1  2008 Muy en desacuerdo               41        2.7 Muy en desacuerdo
##  2  2008 ( 2 )                           64        4.3 ( 2 )            
##  3  2008 ( 3 )                          140        9.3 ( 3 )            
##  4  2008 ( 4 )                          296       19.7 ( 4 )            
##  5  2008 ( 5 )                          322       21.5 Apoyo            
##  6  2008 ( 6 )                          327       21.8 Apoyo            
##  7  2008 Muy de acuerdo                 253       16.9 Apoyo            
##  8  2008 <NA>                            57        3.8 <NA>             
##  9  2010 Muy en desacuerdo               70        4.7 Muy en desacuerdo
## 10  2010 Muy de acuerdo                 230       15.3 Apoyo            
## # ... with 40 more rows
…
